output_generated/uart_rx/obj_dir/waveform.vcd
$version Generated by VerilatedVcd $end
$timescale 1s $end
 $scope module DUT $end
  $var wire 1 1 clock $end
  $var wire 1 2 reset $end
  $var wire 1 3 io_i_serial_data $end
  $var wire 1 4 io_o_rx_done $end
  $var wire 8 5 io_o_data [7:0] $end
  $scope module UART_rx $end
   $var wire 1 1 clock $end
   $var wire 1 2 reset $end
   $var wire 1 3 io_i_serial_data $end
   $var wire 1 4 io_o_rx_done $end
   $var wire 8 5 io_o_data [7:0] $end
   $var wire 9 # clkCnterReg [8:0] $end
   $var wire 4 $ bitCnterReg [3:0] $end
   $var wire 1 % outDataReg_0 $end
   $var wire 1 & outDataReg_1 $end
   $var wire 1 ' outDataReg_2 $end
   $var wire 1 ( outDataReg_3 $end
   $var wire 1 ) outDataReg_4 $end
   $var wire 1 * outDataReg_5 $end
   $var wire 1 + outDataReg_6 $end
   $var wire 1 , outDataReg_7 $end
   $var wire 1 - outRxDoneReg $end
   $var wire 2 . stateReg [1:0] $end
   $var wire 1 / serialDataReg_REG $end
   $var wire 1 0 serialDataReg $end
  $upscope $end
 $upscope $end
$enddefinitions $end


#0
b000000000 #
b0000 $
0%
0&
0'
0(
0)
0*
0+
0,
0-
b00 .
0/
00
01
12
13
04
b00000000 5
#5
1/
11
#10
01
#15
10
11
#20
01
#25
11
#30
01
#35
11
#40
01
#45
11
#50
01
02
#55
11
#60
01
#65
11
#70
01
#75
11
#80
01
#85
11
#90
01
#95
11
#100
01
#105
11
#110
01
#115
11
#120
01
#125
11
#130
01
#135
11
#140
01
#145
11
#150
01
#155
11
#160
01
03
#165
0/
11
#170
01
#175
00
11
#180
01
#185
b01 .
11
#190
01
#195
b000000001 #
11
#200
01
#205
b000000010 #
11
#210
01
#215
b000000011 #
11
#220
01
#225
b000000100 #
11
#230
01
#235
b000000101 #
11
#240
01
#245
b000000110 #
11
#250
01
#255
b000000111 #
11
#260
01
#265
b000001000 #
11
#270
01
#275
b000001001 #
11
#280
01
#285
b000001010 #
11
#290
01
#295
b000001011 #
11
#300
01
#305
b000001100 #
11
#310
01
#315
b000001101 #
11
#320
01
#325
b000001110 #
11
#330
01
#335
b000001111 #
11
#340
01
#345
b000010000 #
11
#350
01
#355
b000010001 #
11
#360
01
#365
b000010010 #
11
#370
01
#375
b000010011 #
11
#380
01
#385
b000010100 #
11
#390
01
#395
b000010101 #
11
#400
01
#405
b000010110 #
11
#410
01
#415
b000010111 #
11
#420
01
#425
b000011000 #
11
#430
01
#435
b000011001 #
11
#440
01
#445
b000011010 #
11
#450
01
#455
b000011011 #
11
#460
01
#465
b000011100 #
11
#470
01
#475
b000011101 #
11
#480
01
#485
b000011110 #
11
#490
01
#495
b000011111 #
11
#500
01
#505
b000100000 #
11
#510
01
#515
b000100001 #
11
#520
01
#525
b000100010 #
11
#530
01
#535
b000100011 #
11
#540
01
#545
b000100100 #
11
#550
01
#555
b000100101 #
11
#560
01
13
#565
b000100110 #
1/
11
#570
01
#575
b000100111 #
10
11
#580
01
#585
b000101000 #
11
#590
01
#595
b000101001 #
11
#600
01
#605
b000101010 #
11
#610
01
#615
b000101011 #
11
#620
01
#625
b000101100 #
11
#630
01
#635
b000101101 #
11
#640
01
#645
b000101110 #
11
#650
01
#655
b000101111 #
11
#660
01
#665
b000110000 #
11
#670
01
#675
b000110001 #
11
#680
01
#685
b000110010 #
11
#690
01
#695
b000110011 #
11
#700
01
#705
b000110100 #
11
#710
01
#715
b000110101 #
11
#720
01
#725
b000110110 #
11
#730
01
#735
b000110111 #
11
#740
01
#745
b000111000 #
11
#750
01
#755
b000111001 #
11
#760
01
03
#765
b000111010 #
0/
11
#770
01
#775
b000111011 #
00
11
#780
01
#785
b000111100 #
11
#790
01
#795
b000111101 #
11
#800
01
#805
b000111110 #
11
#810
01
#815
b000111111 #
11
#820
01
#825
b001000000 #
11
#830
01
#835
b001000001 #
11
#840
01
#845
b001000010 #
11
#850
01
#855
b001000011 #
11
#860
01
#865
b001000100 #
11
#870
01
#875
b001000101 #
11
#880
01
#885
b000000000 #
b10 .
11
#890
01
#895
b000000001 #
11
#900
01
#905
b000000010 #
11
#910
01
#915
b000000011 #
11
#920
01
#925
b000000100 #
11
#930
01
#935
b000000101 #
11
#940
01
#945
b000000110 #
11
#950
01
#955
b000000111 #
11
#960
01
13
#965
b000001000 #
1/
11
#970
01
#975
b000001001 #
10
11
#980
01
#985
b000001010 #
11
#990
01
#995
b000001011 #
11
#1000
01
#1005
b000001100 #
11
#1010
01
#1015
b000001101 #
11
#1020
01
#1025
b000001110 #
11
#1030
01
#1035
b000001111 #
11
#1040
01
#1045
b000010000 #
11
#1050
01
#1055
b000010001 #
11
#1060
01
#1065
b000010010 #
11
#1070
01
#1075
b000010011 #
11
#1080
01
#1085
b000010100 #
11
#1090
01
#1095
b000010101 #
11
#1100
01
#1105
b000010110 #
11
#1110
01
#1115
b000010111 #
11
#1120
01
#1125
b000011000 #
11
#1130
01
#1135
b000011001 #
11
#1140
01
#1145
b000011010 #
11
#1150
01
#1155
b000011011 #
11
#1160
01
03
#1165
b000011100 #
0/
11
#1170
01
#1175
b000011101 #
00
11
#1180
01
#1185
b000011110 #
11
#1190
01
#1195
b000011111 #
11
#1200
01
#1205
b000100000 #
11
#1210
01
#1215
b000100001 #
11
#1220
01
#1225
b000100010 #
11
#1230
01
#1235
b000100011 #
11
#1240
01
#1245
b000100100 #
11
#1250
01
#1255
b000100101 #
11
#1260
01
#1265
b000100110 #
11
#1270
01
#1275
b000100111 #
11
#1280
01
#1285
b000101000 #
11
#1290
01
#1295
b000101001 #
11
#1300
01
#1305
b000101010 #
11
#1310
01
#1315
b000101011 #
11
#1320
01
#1325
b000101100 #
11
#1330
01
#1335
b000101101 #
11
#1340
01
#1345
b000101110 #
11
#1350
01
#1355
b000101111 #
11
#1360
01
13
#1365
b000110000 #
1/
11
#1370
01
#1375
b000110001 #
10
11
#1380
01
#1385
b000110010 #
11
#1390
01
#1395
b000110011 #
11
#1400
01
#1405
b000110100 #
11
#1410
01
#1415
b000110101 #
11
#1420
01
#1425
b000110110 #
11
#1430
01
#1435
b000110111 #
11
#1440
01
#1445
b000111000 #
11
#1450
01
#1455
b000111001 #
11
#1460
01
#1465
b000111010 #
11
#1470
01
#1475
b000111011 #
11
#1480
01
#1485
b000111100 #
11
#1490
01
#1495
b000111101 #
11
#1500
01
#1505
b000111110 #
11
#1510
01
#1515
b000111111 #
11
#1520
01
#1525
b001000000 #
11
#1530
01
#1535
b001000001 #
11
#1540
01
#1545
b001000010 #
11
#1550
01
#1555
b001000011 #
11
#1560
01
03
#1565
b001000100 #
0/
11
#1570
01
#1575
b001000101 #
00
11
#1580
01
#1585
b001000110 #
11
#1590
01
#1595
b001000111 #
11
#1600
01
#1605
b001001000 #
11
#1610
01
#1615
b001001001 #
11
#1620
01
#1625
b001001010 #
11
#1630
01
#1635
b001001011 #
11
#1640
01
#1645
b001001100 #
11
#1650
01
#1655
b001001101 #
11
#1660
01
#1665
b001001110 #
11
#1670
01
#1675
b001001111 #
11
#1680
01
#1685
b001010000 #
11
#1690
01
#1695
b001010001 #
11
#1700
01
#1705
b001010010 #
11
#1710
01
#1715
b001010011 #
11
#1720
01
#1725
b001010100 #
11
#1730
01
#1735
b001010101 #
11
#1740
01
#1745
b001010110 #
11
#1750
01
#1755
b001010111 #
11
#1760
01
13
#1765
b001011000 #
1/
11
#1770
01
#1775
b001011001 #
10
11
#1780
01
#1785
b001011010 #
11
#1790
01
#1795
b001011011 #
11
#1800
01
#1805
b001011100 #
11
#1810
01
#1815
b001011101 #
11
#1820
01
#1825
b001011110 #
11
#1830
01
#1835
b001011111 #
11
#1840
01
#1845
b001100000 #
11
#1850
01
#1855
b001100001 #
11
#1860
01
#1865
b001100010 #
11
#1870
01
#1875
b001100011 #
11
#1880
01
#1885
b001100100 #
11
#1890
01
#1895
b001100101 #
11
#1900
01
#1905
b001100110 #
11
#1910
01
#1915
b001100111 #
11
#1920
01
#1925
b001101000 #
11
#1930
01
#1935
b001101001 #
11
#1940
01
#1945
b001101010 #
11
#1950
01
#1955
b001101011 #
11
#1960
01
#1965
b001101100 #
11
#1970
01
#1975
b001101101 #
11
#1980
01
#1985
b001101110 #
11
#1990
01
#1995
b001101111 #
11
#2000
01
#2005
b001110000 #
11
#2010
01
#2015
b001110001 #
11
#2020
01
#2025
b001110010 #
11
#2030
01
#2035
b001110011 #
11
#2040
01
#2045
b001110100 #
11
#2050
01
#2055
b001110101 #
11
#2060
01
#2065
b001110110 #
11
#2070
01
#2075
b001110111 #
11
#2080
01
#2085
b001111000 #
11
#2090
01
#2095
b001111001 #
11
#2100
01
#2105
b001111010 #
11
#2110
01
#2115
b001111011 #
11
#2120
01
#2125
b001111100 #
11
#2130
01
#2135
b001111101 #
11
#2140
01
#2145
b001111110 #
11
#2150
01
#2155
b001111111 #
11
#2160
01
03
#2165
b010000000 #
0/
11
#2170
01
#2175
b010000001 #
00
11
#2180
01
#2185
b010000010 #
11
#2190
01
#2195
b010000011 #
11
#2200
01
#2205
b010000100 #
11
#2210
01
#2215
b010000101 #
11
#2220
01
#2225
b010000110 #
11
#2230
01
#2235
b010000111 #
11
#2240
01
#2245
b010001000 #
11
#2250
01
#2255
b010001001 #
11
#2260
01
#2265
b010001010 #
11
#2270
01
#2275
b000000000 #
b0001 $
11
#2280
01
#2285
b000000001 #
11
#2290
01
#2295
b000000010 #
11
#2300
01
#2305
b000000011 #
11
#2310
01
#2315
b000000100 #
11
#2320
01
#2325
b000000101 #
11
#2330
01
#2335
b000000110 #
11
#2340
01
#2345
b000000111 #
11
#2350
01
#2355
b000001000 #
11
#2360
01
13
#2365
b000001001 #
1/
11
#2370
01
#2375
b000001010 #
10
11
#2380
01
#2385
b000001011 #
11
#2390
01
#2395
b000001100 #
11
#2400
01
#2405
b000001101 #
11
#2410
01
#2415
b000001110 #
11
#2420
01
#2425
b000001111 #
11
#2430
01
#2435
b000010000 #
11
#2440
01
#2445
b000010001 #
11
#2450
01
#2455
b000010010 #
11
#2460
01
#2465
b000010011 #
11
#2470
01
#2475
b000010100 #
11
#2480
01
#2485
b000010101 #
11
#2490
01
#2495
b000010110 #
11
#2500
01
#2505
b000010111 #
11
#2510
01
#2515
b000011000 #
11
#2520
01
#2525
b000011001 #
11
#2530
01
#2535
b000011010 #
11
#2540
01
#2545
b000011011 #
11
#2550
01
#2555
b000011100 #
11
#2560
01
03
#2565
b000011101 #
0/
11
#2570
01
#2575
b000011110 #
00
11
#2580
01
#2585
b000011111 #
11
#2590
01
#2595
b000100000 #
11
#2600
01
#2605
b000100001 #
11
#2610
01
#2615
b000100010 #
11
#2620
01
#2625
b000100011 #
11
#2630
01
#2635
b000100100 #
11
#2640
01
#2645
b000100101 #
11
#2650
01
#2655
b000100110 #
11
#2660
01
#2665
b000100111 #
11
#2670
01
#2675
b000101000 #
11
#2680
01
#2685
b000101001 #
11
#2690
01
#2695
b000101010 #
11
#2700
01
#2705
b000101011 #
11
#2710
01
#2715
b000101100 #
11
#2720
01
#2725
b000101101 #
11
#2730
01
#2735
b000101110 #
11
#2740
01
#2745
b000101111 #
11
#2750
01
#2755
b000110000 #
11
#2760
01
13
#2765
b000110001 #
1/
11
#2770
01
#2775
b000110010 #
10
11
#2780
01
#2785
b000110011 #
11
#2790
01
#2795
b000110100 #
11
#2800
01
#2805
b000110101 #
11
#2810
01
#2815
b000110110 #
11
#2820
01
#2825
b000110111 #
11
#2830
01
#2835
b000111000 #
11
#2840
01
#2845
b000111001 #
11
#2850
01
#2855
b000111010 #
11
#2860
01
#2865
b000111011 #
11
#2870
01
#2875
b000111100 #
11
#2880
01
#2885
b000111101 #
11
#2890
01
#2895
b000111110 #
11
#2900
01
#2905
b000111111 #
11
#2910
01
#2915
b001000000 #
11
#2920
01
#2925
b001000001 #
11
#2930
01
#2935
b001000010 #
11
#2940
01
#2945
b001000011 #
11
#2950
01
#2955
b001000100 #
11
#2960
01
03
#2965
b001000101 #
0/
11
#2970
01
#2975
b001000110 #
00
11
#2980
01
#2985
b001000111 #
11
#2990
01
#2995
b001001000 #
11
#3000
01
#3005
b001001001 #
11
#3010
01
#3015
b001001010 #
11
#3020
01
#3025
b001001011 #
11
#3030
01
#3035
b001001100 #
11
#3040
01
#3045
b001001101 #
11
#3050
01
#3055
b001001110 #
11
#3060
01
#3065
b001001111 #
11
#3070
01
#3075
b001010000 #
11
#3080
01
#3085
b001010001 #
11
#3090
01
#3095
b001010010 #
11
#3100
01
#3105
b001010011 #
11
#3110
01
#3115
b001010100 #
11
#3120
01
#3125
b001010101 #
11
#3130
01
#3135
b001010110 #
11
#3140
01
#3145
b001010111 #
11
#3150
01
#3155
b001011000 #
11
#3160
01
13
#3165
b001011001 #
1/
11
#3170
01
#3175
b001011010 #
10
11
#3180
01
#3185
b001011011 #
11
#3190
01
#3195
b001011100 #
11
#3200
01
#3205
b001011101 #
11
#3210
01
#3215
b001011110 #
11
#3220
01
#3225
b001011111 #
11
#3230
01
#3235
b001100000 #
11
#3240
01
#3245
b001100001 #
11
#3250
01
#3255
b001100010 #
11
#3260
01
#3265
b001100011 #
11
#3270
01
#3275
b001100100 #
11
#3280
01
#3285
b001100101 #
11
#3290
01
#3295
b001100110 #
11
#3300
01
#3305
b001100111 #
11
#3310
01
#3315
b001101000 #
11
#3320
01
#3325
b001101001 #
11
#3330
01
#3335
b001101010 #
11
#3340
01
#3345
b001101011 #
11
#3350
01
#3355
b001101100 #
11
#3360
01
03
#3365
b001101101 #
0/
11
#3370
01
#3375
b001101110 #
00
11
#3380
01
#3385
b001101111 #
11
#3390
01
#3395
b001110000 #
11
#3400
01
#3405
b001110001 #
11
#3410
01
#3415
b001110010 #
11
#3420
01
#3425
b001110011 #
11
#3430
01
#3435
b001110100 #
11
#3440
01
#3445
b001110101 #
11
#3450
01
#3455
b001110110 #
11
#3460
01
#3465
b001110111 #
11
#3470
01
#3475
b001111000 #
11
#3480
01
#3485
b001111001 #
11
#3490
01
#3495
b001111010 #
11
#3500
01
#3505
b001111011 #
11
#3510
01
#3515
b001111100 #
11
#3520
01
#3525
b001111101 #
11
#3530
01
#3535
b001111110 #
11
#3540
01
#3545
b001111111 #
11
#3550
01
#3555
b010000000 #
11
#3560
01
13
#3565
b010000001 #
1/
11
#3570
01
#3575
b010000010 #
10
11
#3580
01
#3585
b010000011 #
11
#3590
01
#3595
b010000100 #
11
#3600
01
#3605
b010000101 #
11
#3610
01
#3615
b010000110 #
11
#3620
01
#3625
b010000111 #
11
#3630
01
#3635
b010001000 #
11
#3640
01
#3645
b010001001 #
11
#3650
01
#3655
b010001010 #
11
#3660
01
#3665
b000000000 #
b0010 $
1&
11
b00000010 5
#3670
01
#3675
b000000001 #
11
#3680
01
#3685
b000000010 #
11
#3690
01
#3695
b000000011 #
11
#3700
01
#3705
b000000100 #
11
#3710
01
#3715
b000000101 #
11
#3720
01
#3725
b000000110 #
11
#3730
01
#3735
b000000111 #
11
#3740
01
#3745
b000001000 #
11
#3750
01
#3755
b000001001 #
11
#3760
01
03
#3765
b000001010 #
0/
11
#3770
01
#3775
b000001011 #
00
11
#3780
01
#3785
b000001100 #
11
#3790
01
#3795
b000001101 #
11
#3800
01
#3805
b000001110 #
11
#3810
01
#3815
b000001111 #
11
#3820
01
#3825
b000010000 #
11
#3830
01
#3835
b000010001 #
11
#3840
01
#3845
b000010010 #
11
#3850
01
#3855
b000010011 #
11
#3860
01
#3865
b000010100 #
11
#3870
01
#3875
b000010101 #
11
#3880
01
#3885
b000010110 #
11
#3890
01
#3895
b000010111 #
11
#3900
01
#3905
b000011000 #
11
#3910
01
#3915
b000011001 #
11
#3920
01
#3925
b000011010 #
11
#3930
01
#3935
b000011011 #
11
#3940
01
#3945
b000011100 #
11
#3950
01
#3955
b000011101 #
11
#3960
01
13
#3965
b000011110 #
1/
11
#3970
01
#3975
b000011111 #
10
11
#3980
01
#3985
b000100000 #
11
#3990
01
#3995
b000100001 #
11
#4000
01
#4005
b000100010 #
11
#4010
01
#4015
b000100011 #
11
#4020
01
#4025
b000100100 #
11
#4030
01
#4035
b000100101 #
11
#4040
01
#4045
b000100110 #
11
#4050
01
#4055
b000100111 #
11
#4060
01
#4065
b000101000 #
11
#4070
01
#4075
b000101001 #
11
#4080
01
#4085
b000101010 #
11
#4090
01
#4095
b000101011 #
11
#4100
01
#4105
b000101100 #
11
#4110
01
#4115
b000101101 #
11
#4120
01
#4125
b000101110 #
11
#4130
01
#4135
b000101111 #
11
#4140
01
#4145
b000110000 #
11
#4150
01
#4155
b000110001 #
11
#4160
01
03
#4165
b000110010 #
0/
11
#4170
01
#4175
b000110011 #
00
11
#4180
01
#4185
b000110100 #
11
#4190
01
#4195
b000110101 #
11
#4200
01
#4205
b000110110 #
11
#4210
01
#4215
b000110111 #
11
#4220
01
#4225
b000111000 #
11
#4230
01
#4235
b000111001 #
11
#4240
01
#4245
b000111010 #
11
#4250
01
#4255
b000111011 #
11
#4260
01
#4265
b000111100 #
11
#4270
01
#4275
b000111101 #
11
#4280
01
#4285
b000111110 #
11
#4290
01
#4295
b000111111 #
11
#4300
01
#4305
b001000000 #
11
#4310
01
#4315
b001000001 #
11
#4320
01
#4325
b001000010 #
11
#4330
01
#4335
b001000011 #
11
#4340
01
#4345
b001000100 #
11
#4350
01
#4355
b001000101 #
11
#4360
01
#4365
b001000110 #
11
#4370
01
#4375
b001000111 #
11
#4380
01
#4385
b001001000 #
11
#4390
01
#4395
b001001001 #
11
#4400
01
#4405
b001001010 #
11
#4410
01
#4415
b001001011 #
11
#4420
01
#4425
b001001100 #
11
#4430
01
#4435
b001001101 #
11
#4440
01
#4445
b001001110 #
11
#4450
01
#4455
b001001111 #
11
#4460
01
#4465
b001010000 #
11
#4470
01
#4475
b001010001 #
11
#4480
01
#4485
b001010010 #
11
#4490
01
#4495
b001010011 #
11
#4500
01
#4505
b001010100 #
11
#4510
01
#4515
b001010101 #
11
#4520
01
#4525
b001010110 #
11
#4530
01
#4535
b001010111 #
11
#4540
01
#4545
b001011000 #
11
#4550
01
#4555
b001011001 #
11
#4560
01
#4565
b001011010 #
11
#4570
01
#4575
b001011011 #
11
#4580
01
#4585
b001011100 #
11
#4590
01
#4595
b001011101 #
11
#4600
01
#4605
b001011110 #
11
#4610
01
#4615
b001011111 #
11
#4620
01
#4625
b001100000 #
11
#4630
01
#4635
b001100001 #
11
#4640
01
#4645
b001100010 #
11
#4650
01
#4655
b001100011 #
11
#4660
01
#4665
b001100100 #
11
#4670
01
#4675
b001100101 #
11
#4680
01
#4685
b001100110 #
11
#4690
01
#4695
b001100111 #
11
#4700
01
#4705
b001101000 #
11
#4710
01
#4715
b001101001 #
11
#4720
01
#4725
b001101010 #
11
#4730
01
#4735
b001101011 #
11
#4740
01
#4745
b001101100 #
11
#4750
01
#4755
b001101101 #
11
#4760
01
#4765
b001101110 #
11
#4770
01
#4775
b001101111 #
11
#4780
01
#4785
b001110000 #
11
#4790
01
#4795
b001110001 #
11
#4800
01
#4805
b001110010 #
11
#4810
01
#4815
b001110011 #
11
#4820
01
#4825
b001110100 #
11
#4830
01
#4835
b001110101 #
11
#4840
01
#4845
b001110110 #
11
#4850
01
#4855
b001110111 #
11
#4860
01
#4865
b001111000 #
11
#4870
01
#4875
b001111001 #
11
#4880
01
#4885
b001111010 #
11
#4890
01
#4895
b001111011 #
11
#4900
01
#4905
b001111100 #
11
#4910
01
#4915
b001111101 #
11
#4920
01
#4925
b001111110 #
11
#4930
01
#4935
b001111111 #
11
#4940
01
#4945
b010000000 #
11
#4950
01
#4955
b010000001 #
11
#4960
01
#4965
b010000010 #
11
#4970
01
#4975
b010000011 #
11
#4980
01
#4985
b010000100 #
11
#4990
01
#4995
b010000101 #
11
#5000
01
#5005
b010000110 #
11
#5010
01
#5015
b010000111 #
11
#5020
01
#5025
b010001000 #
11
#5030
01
#5035
b010001001 #
11
#5040
01
#5045
b010001010 #
11
#5050
01
#5055
b000000000 #
b0011 $
11
#5060
01
#5065
b000000001 #
11
#5070
01
#5075
b000000010 #
11
#5080
01
#5085
b000000011 #
11
#5090
01
#5095
b000000100 #
11
#5100
01
#5105
b000000101 #
11
#5110
01
#5115
b000000110 #
11
#5120
01
#5125
b000000111 #
11
#5130
01
#5135
b000001000 #
11
#5140
01
#5145
b000001001 #
11
#5150
01
#5155
b000001010 #
11
#5160
01
#5165
b000001011 #
11
#5170
01
#5175
b000001100 #
11
#5180
01
#5185
b000001101 #
11
#5190
01
#5195
b000001110 #
11
#5200
01
#5205
b000001111 #
11
#5210
01
#5215
b000010000 #
11
#5220
01
#5225
b000010001 #
11
#5230
01
#5235
b000010010 #
11
#5240
01
#5245
b000010011 #
11
#5250
01
#5255
b000010100 #
11
#5260
01
#5265
b000010101 #
11
#5270
01
#5275
b000010110 #
11
#5280
01
#5285
b000010111 #
11
#5290
01
#5295
b000011000 #
11
#5300
01
#5305
b000011001 #
11
#5310
01
#5315
b000011010 #
11
#5320
01
#5325
b000011011 #
11
#5330
01
#5335
b000011100 #
11
#5340
01
#5345
b000011101 #
11
#5350
01
#5355
b000011110 #
11
#5360
01
#5365
b000011111 #
11
#5370
01
#5375
b000100000 #
11
#5380
01
#5385
b000100001 #
11
#5390
01
#5395
b000100010 #
11
#5400
01
#5405
b000100011 #
11
#5410
01
#5415
b000100100 #
11
#5420
01
#5425
b000100101 #
11
#5430
01
#5435
b000100110 #
11
#5440
01
#5445
b000100111 #
11
#5450
01
#5455
b000101000 #
11
#5460
01
#5465
b000101001 #
11
#5470
01
#5475
b000101010 #
11
#5480
01
#5485
b000101011 #
11
#5490
01
#5495
b000101100 #
11
#5500
01
#5505
b000101101 #
11
#5510
01
#5515
b000101110 #
11
#5520
01
#5525
b000101111 #
11
#5530
01
#5535
b000110000 #
11
#5540
01
#5545
b000110001 #
11
#5550
01
#5555
b000110010 #
11
#5560
01
#5565
b000110011 #
11
#5570
01
#5575
b000110100 #
11
#5580
01
#5585
b000110101 #
11
#5590
01
#5595
b000110110 #
11
#5600
01
#5605
b000110111 #
11
#5610
01
#5615
b000111000 #
11
#5620
01
#5625
b000111001 #
11
#5630
01
#5635
b000111010 #
11
#5640
01
#5645
b000111011 #
11
#5650
01
#5655
b000111100 #
11
#5660
01
#5665
b000111101 #
11
#5670
01
#5675
b000111110 #
11
#5680
01
#5685
b000111111 #
11
#5690
01
#5695
b001000000 #
11
#5700
01
#5705
b001000001 #
11
#5710
01
#5715
b001000010 #
11
#5720
01
#5725
b001000011 #
11
#5730
01
#5735
b001000100 #
11
#5740
01
#5745
b001000101 #
11
#5750
01
#5755
b001000110 #
11
#5760
01
#5765
b001000111 #
11
#5770
01
#5775
b001001000 #
11
#5780
01
#5785
b001001001 #
11
#5790
01
#5795
b001001010 #
11
#5800
01
#5805
b001001011 #
11
#5810
01
#5815
b001001100 #
11
#5820
01
#5825
b001001101 #
11
#5830
01
#5835
b001001110 #
11
#5840
01
#5845
b001001111 #
11
#5850
01
#5855
b001010000 #
11
#5860
01
#5865
b001010001 #
11
#5870
01
#5875
b001010010 #
11
#5880
01
#5885
b001010011 #
11
#5890
01
#5895
b001010100 #
11
#5900
01
#5905
b001010101 #
11
#5910
01
#5915
b001010110 #
11
#5920
01
#5925
b001010111 #
11
#5930
01
#5935
b001011000 #
11
#5940
01
#5945
b001011001 #
11
#5950
01
#5955
b001011010 #
11
#5960
01
13
#5965
b001011011 #
1/
11
#5970
01
#5975
b001011100 #
10
11
#5980
01
#5985
b001011101 #
11
#5990
01
#5995
b001011110 #
11
#6000
01
#6005
b001011111 #
11
#6010
01
#6015
b001100000 #
11
#6020
01
#6025
b001100001 #
11
#6030
01
#6035
b001100010 #
11
#6040
01
#6045
b001100011 #
11
#6050
01
#6055
b001100100 #
11
#6060
01
#6065
b001100101 #
11
#6070
01
#6075
b001100110 #
11
#6080
01
#6085
b001100111 #
11
#6090
01
#6095
b001101000 #
11
#6100
01
#6105
b001101001 #
11
#6110
01
#6115
b001101010 #
11
#6120
01
#6125
b001101011 #
11
#6130
01
#6135
b001101100 #
11
#6140
01
#6145
b001101101 #
11
#6150
01
#6155
b001101110 #
11
#6160
01
03
#6165
b001101111 #
0/
11
#6170
01
#6175
b001110000 #
00
11
#6180
01
#6185
b001110001 #
11
#6190
01
#6195
b001110010 #
11
#6200
01
#6205
b001110011 #
11
#6210
01
#6215
b001110100 #
11
#6220
01
#6225
b001110101 #
11
#6230
01
#6235
b001110110 #
11
#6240
01
#6245
b001110111 #
11
#6250
01
#6255
b001111000 #
11
#6260
01
#6265
b001111001 #
11
#6270
01
#6275
b001111010 #
11
#6280
01
#6285
b001111011 #
11
#6290
01
#6295
b001111100 #
11
#6300
01
#6305
b001111101 #
11
#6310
01
#6315
b001111110 #
11
#6320
01
#6325
b001111111 #
11
#6330
01
#6335
b010000000 #
11
#6340
01
#6345
b010000001 #
11
#6350
01
#6355
b010000010 #
11
#6360
01
13
#6365
b010000011 #
1/
11
#6370
01
#6375
b010000100 #
10
11
#6380
01
#6385
b010000101 #
11
#6390
01
#6395
b010000110 #
11
#6400
01
#6405
b010000111 #
11
#6410
01
#6415
b010001000 #
11
#6420
01
#6425
b010001001 #
11
#6430
01
#6435
b010001010 #
11
#6440
01
#6445
b000000000 #
b0100 $
1(
11
b00001010 5
#6450
01
#6455
b000000001 #
11
#6460
01
#6465
b000000010 #
11
#6470
01
#6475
b000000011 #
11
#6480
01
#6485
b000000100 #
11
#6490
01
#6495
b000000101 #
11
#6500
01
#6505
b000000110 #
11
#6510
01
#6515
b000000111 #
11
#6520
01
#6525
b000001000 #
11
#6530
01
#6535
b000001001 #
11
#6540
01
#6545
b000001010 #
11
#6550
01
#6555
b000001011 #
11
#6560
01
#6565
b000001100 #
11
#6570
01
#6575
b000001101 #
11
#6580
01
#6585
b000001110 #
11
#6590
01
#6595
b000001111 #
11
#6600
01
#6605
b000010000 #
11
#6610
01
#6615
b000010001 #
11
#6620
01
#6625
b000010010 #
11
#6630
01
#6635
b000010011 #
11
#6640
01
#6645
b000010100 #
11
#6650
01
#6655
b000010101 #
11
#6660
01
#6665
b000010110 #
11
#6670
01
#6675
b000010111 #
11
#6680
01
#6685
b000011000 #
11
#6690
01
#6695
b000011001 #
11
#6700
01
#6705
b000011010 #
11
#6710
01
#6715
b000011011 #
11
#6720
01
#6725
b000011100 #
11
#6730
01
#6735
b000011101 #
11
#6740
01
#6745
b000011110 #
11
#6750
01
#6755
b000011111 #
11
#6760
01
#6765
b000100000 #
11
#6770
01
#6775
b000100001 #
11
#6780
01
#6785
b000100010 #
11
#6790
01
#6795
b000100011 #
11
#6800
01
#6805
b000100100 #
11
#6810
01
#6815
b000100101 #
11
#6820
01
#6825
b000100110 #
11
#6830
01
#6835
b000100111 #
11
#6840
01
#6845
b000101000 #
11
#6850
01
#6855
b000101001 #
11
#6860
01
#6865
b000101010 #
11
#6870
01
#6875
b000101011 #
11
#6880
01
#6885
b000101100 #
11
#6890
01
#6895
b000101101 #
11
#6900
01
#6905
b000101110 #
11
#6910
01
#6915
b000101111 #
11
#6920
01
#6925
b000110000 #
11
#6930
01
#6935
b000110001 #
11
#6940
01
#6945
b000110010 #
11
#6950
01
#6955
b000110011 #
11
#6960
01
#6965
b000110100 #
11
#6970
01
#6975
b000110101 #
11
#6980
01
#6985
b000110110 #
11
#6990
01
#6995
b000110111 #
11
#7000
01
#7005
b000111000 #
11
#7010
01
#7015
b000111001 #
11
#7020
01
#7025
b000111010 #
11
#7030
01
#7035
b000111011 #
11
#7040
01
#7045
b000111100 #
11
#7050
01
#7055
b000111101 #
11
#7060
01
#7065
b000111110 #
11
#7070
01
#7075
b000111111 #
11
#7080
01
#7085
b001000000 #
11
#7090
01
#7095
b001000001 #
11
#7100
01
#7105
b001000010 #
11
#7110
01
#7115
b001000011 #
11
#7120
01
#7125
b001000100 #
11
#7130
01
#7135
b001000101 #
11
#7140
01
#7145
b001000110 #
11
#7150
01
#7155
b001000111 #
11
#7160
01
#7165
b001001000 #
11
#7170
01
#7175
b001001001 #
11
#7180
01
#7185
b001001010 #
11
#7190
01
#7195
b001001011 #
11
#7200
01
#7205
b001001100 #
11
#7210
01
#7215
b001001101 #
11
#7220
01
#7225
b001001110 #
11
#7230
01
#7235
b001001111 #
11
#7240
01
#7245
b001010000 #
11
#7250
01
#7255
b001010001 #
11
#7260
01
#7265
b001010010 #
11
#7270
01
#7275
b001010011 #
11
#7280
01
#7285
b001010100 #
11
#7290
01
#7295
b001010101 #
11
#7300
01
#7305
b001010110 #
11
#7310
01
#7315
b001010111 #
11
#7320
01
#7325
b001011000 #
11
#7330
01
#7335
b001011001 #
11
#7340
01
#7345
b001011010 #
11
#7350
01
#7355
b001011011 #
11
#7360
01
#7365
b001011100 #
11
#7370
01
#7375
b001011101 #
11
#7380
01
#7385
b001011110 #
11
#7390
01
#7395
b001011111 #
11
#7400
01
#7405
b001100000 #
11
#7410
01
#7415
b001100001 #
11
#7420
01
#7425
b001100010 #
11
#7430
01
#7435
b001100011 #
11
#7440
01
#7445
b001100100 #
11
#7450
01
#7455
b001100101 #
11
#7460
01
#7465
b001100110 #
11
#7470
01
#7475
b001100111 #
11
#7480
01
#7485
b001101000 #
11
#7490
01
#7495
b001101001 #
11
#7500
01
#7505
b001101010 #
11
#7510
01
#7515
b001101011 #
11
#7520
01
#7525
b001101100 #
11
#7530
01
#7535
b001101101 #
11
#7540
01
#7545
b001101110 #
11
#7550
01
#7555
b001101111 #
11
#7560
01
#7565
b001110000 #
11
#7570
01
#7575
b001110001 #
11
#7580
01
#7585
b001110010 #
11
#7590
01
#7595
b001110011 #
11
#7600
01
#7605
b001110100 #
11
#7610
01
