output_generated/reg_module/obj_dir/waveform.vcd
$version Generated by VerilatedVcd $end
$timescale 1s $end
 $scope module DUT $end
  $var wire 1 # clock $end
  $var wire 1 $ reset $end
  $var wire 1 % io_sel $end
  $var wire 8 & io_out [7:0] $end
  $scope module RegModule $end
   $var wire 1 # clock $end
   $var wire 1 $ reset $end
   $var wire 1 % io_sel $end
   $var wire 8 & io_out [7:0] $end
   $var wire 8 ' regA [7:0] $end
   $var wire 8 ( regB [7:0] $end
  $upscope $end
 $upscope $end
$enddefinitions $end


#0
0#
1$
0%
b00000000 &
b00000000 '
b00000000 (
#5
1#
b01100100 (
#10
0#
#15
1#
#20
0#
#25
1#
#30
0#
#35
1#
#40
0#
#45
1#
#50
0#
0$
1%
b01100100 &
#55
1#
b01100011 &
b00000001 '
b01100011 (
#60
0#
#65
1#
b01100010 &
b00000010 '
b01100010 (
#70
0#
#75
1#
b01100001 &
b00000011 '
b01100001 (
#80
0#
#85
1#
b01100000 &
b00000100 '
b01100000 (
#90
0#
#95
1#
b01011111 &
b00000101 '
b01011111 (
#100
0#
#105
1#
b01011110 &
b00000110 '
b01011110 (
#110
0#
#115
1#
b01011101 &
b00000111 '
b01011101 (
#120
0#
#125
1#
b01011100 &
b00001000 '
b01011100 (
#130
0#
#135
1#
b01011011 &
b00001001 '
b01011011 (
#140
0#
#145
1#
b01011010 &
b00001010 '
b01011010 (
#150
0#
#155
1#
b01011001 &
b00001011 '
b01011001 (
#160
0#
#165
1#
b01011000 &
b00001100 '
b01011000 (
#170
0#
#175
1#
b01010111 &
b00001101 '
b01010111 (
#180
0#
#185
1#
b01010110 &
b00001110 '
b01010110 (
#190
0#
#195
1#
b01010101 &
b00001111 '
b01010101 (
#200
0#
#205
1#
b01010100 &
b00010000 '
b01010100 (
#210
0#
#215
1#
b01010011 &
b00010001 '
b01010011 (
#220
0#
#225
1#
b01010010 &
b00010010 '
b01010010 (
#230
0#
#235
1#
b01010001 &
b00010011 '
b01010001 (
#240
0#
#245
1#
b01010000 &
b00010100 '
b01010000 (
#250
0#
0%
b00010100 &
#255
1#
b00010101 &
b00010101 '
b01001111 (
#260
0#
#265
1#
b00010110 &
b00010110 '
b01001110 (
#270
0#
#275
1#
b00010111 &
b00010111 '
b01001101 (
#280
0#
#285
1#
b00011000 &
b00011000 '
b01001100 (
#290
0#
#295
1#
b00011001 &
b00011001 '
b01001011 (
#300
0#
#305
1#
b00011010 &
b00011010 '
b01001010 (
#310
0#
#315
1#
b00011011 &
b00011011 '
b01001001 (
#320
0#
#325
1#
b00011100 &
b00011100 '
b01001000 (
#330
0#
#335
1#
b00011101 &
b00011101 '
b01000111 (
#340
0#
#345
1#
b00011110 &
b00011110 '
b01000110 (
#350
0#
#355
1#
b00011111 &
b00011111 '
b01000101 (
#360
0#
#365
1#
b00100000 &
b00100000 '
b01000100 (
#370
0#
#375
1#
b00100001 &
b00100001 '
b01000011 (
#380
0#
#385
1#
b00100010 &
b00100010 '
b01000010 (
#390
0#
#395
1#
b00100011 &
b00100011 '
b01000001 (
#400
0#
#405
1#
b00100100 &
b00100100 '
b01000000 (
#410
0#
#415
1#
b00100101 &
b00100101 '
b00111111 (
#420
0#
#425
1#
b00100110 &
b00100110 '
b00111110 (
#430
0#
#435
1#
b00100111 &
b00100111 '
b00111101 (
#440
0#
#445
1#
b00101000 &
b00101000 '
b00111100 (
#450
0#
1%
b00111100 &
#455
1#
b00111011 &
b00101001 '
b00111011 (
#460
0#
#465
1#
b00111010 &
b00101010 '
b00111010 (
#470
0#
#475
1#
b00111001 &
b00101011 '
b00111001 (
#480
0#
#485
1#
b00111000 &
b00101100 '
b00111000 (
#490
0#
#495
1#
b00110111 &
b00101101 '
b00110111 (
#500
0#
#505
1#
b00110110 &
b00101110 '
b00110110 (
#510
0#
#515
1#
b00110101 &
b00101111 '
b00110101 (
#520
0#
#525
1#
b00110100 &
b00110000 '
b00110100 (
#530
0#
#535
1#
b00110011 &
b00110001 '
b00110011 (
#540
0#
#545
1#
b00110010 &
b00110010 '
b00110010 (
#550
0#
#555
1#
b00110001 &
b00110011 '
b00110001 (
#560
0#
#565
1#
b00110000 &
b00110100 '
b00110000 (
#570
0#
#575
1#
b00101111 &
b00110101 '
b00101111 (
#580
0#
#585
1#
b00101110 &
b00110110 '
b00101110 (
#590
0#
#595
1#
b00101101 &
b00110111 '
b00101101 (
#600
0#
#605
1#
b00101100 &
b00111000 '
b00101100 (
#610
0#
#615
1#
b00101011 &
b00111001 '
b00101011 (
#620
0#
#625
1#
b00101010 &
b00111010 '
b00101010 (
#630
0#
#635
1#
b00101001 &
b00111011 '
b00101001 (
#640
0#
#645
1#
b00101000 &
b00111100 '
b00101000 (
#650
0#
0%
b00111100 &
#655
1#
b00111101 &
b00111101 '
b00100111 (
#660
0#
#665
1#
b00111110 &
b00111110 '
b00100110 (
#670
0#
#675
1#
b00111111 &
b00111111 '
b00100101 (
#680
0#
#685
1#
b01000000 &
b01000000 '
b00100100 (
#690
0#
#695
1#
b01000001 &
b01000001 '
b00100011 (
#700
0#
#705
1#
b01000010 &
b01000010 '
b00100010 (
#710
0#
#715
1#
b01000011 &
b01000011 '
b00100001 (
#720
0#
#725
1#
b01000100 &
b01000100 '
b00100000 (
#730
0#
#735
1#
b01000101 &
b01000101 '
b00011111 (
#740
0#
#745
1#
b01000110 &
b01000110 '
b00011110 (
#750
0#
#755
1#
b01000111 &
b01000111 '
b00011101 (
#760
0#
#765
1#
b01001000 &
b01001000 '
b00011100 (
#770
0#
#775
1#
b01001001 &
b01001001 '
b00011011 (
#780
0#
#785
1#
b01001010 &
b01001010 '
b00011010 (
#790
0#
#795
1#
b01001011 &
b01001011 '
b00011001 (
#800
0#
#805
1#
b01001100 &
b01001100 '
b00011000 (
#810
0#
#815
1#
b01001101 &
b01001101 '
b00010111 (
#820
0#
#825
1#
b01001110 &
b01001110 '
b00010110 (
#830
0#
#835
1#
b01001111 &
b01001111 '
b00010101 (
#840
0#
#845
1#
b01010000 &
b01010000 '
b00010100 (
#850
0#
1%
b00010100 &
#855
1#
b00010011 &
b01010001 '
b00010011 (
#860
0#
#865
1#
b00010010 &
b01010010 '
b00010010 (
#870
0#
#875
1#
b00010001 &
b01010011 '
b00010001 (
#880
0#
#885
1#
b00010000 &
b01010100 '
b00010000 (
#890
0#
#895
1#
b00001111 &
b01010101 '
b00001111 (
#900
0#
#905
1#
b00001110 &
b01010110 '
b00001110 (
#910
0#
#915
1#
b00001101 &
b01010111 '
b00001101 (
#920
0#
#925
1#
b00001100 &
b01011000 '
b00001100 (
#930
0#
#935
1#
b00001011 &
b01011001 '
b00001011 (
#940
0#
#945
1#
b00001010 &
b01011010 '
b00001010 (
#950
0#
#955
1#
b00001001 &
b01011011 '
b00001001 (
#960
0#
#965
1#
b00001000 &
b01011100 '
b00001000 (
#970
0#
#975
1#
b00000111 &
b01011101 '
b00000111 (
#980
0#
#985
1#
b00000110 &
b01011110 '
b00000110 (
#990
0#
#995
1#
b00000101 &
b01011111 '
b00000101 (
#1000
0#
#1005
1#
b00000100 &
b01100000 '
b00000100 (
#1010
0#
#1015
1#
b00000011 &
b01100001 '
b00000011 (
#1020
0#
#1025
1#
b00000010 &
b01100010 '
b00000010 (
#1030
0#
#1035
1#
b00000001 &
b01100011 '
b00000001 (
#1040
0#
#1045
1#
b00000000 &
b01100100 '
b00000000 (
#1050
0#
0%
b01100100 &
#1055
1#
b01100101 &
b01100101 '
b11111111 (
#1060
0#
#1065
1#
b01100110 &
b01100110 '
b11111110 (
#1070
0#
#1075
1#
b01100111 &
b01100111 '
b11111101 (
#1080
0#
#1085
1#
b01101000 &
b01101000 '
b11111100 (
#1090
0#
#1095
1#
b01101001 &
b01101001 '
b11111011 (
#1100
0#
#1105
1#
b01101010 &
b01101010 '
b11111010 (
#1110
0#
#1115
1#
b01101011 &
b01101011 '
b11111001 (
#1120
0#
#1125
1#
b01101100 &
b01101100 '
b11111000 (
#1130
0#
#1135
1#
b01101101 &
b01101101 '
b11110111 (
#1140
0#
#1145
1#
b01101110 &
b01101110 '
b11110110 (
#1150
0#
#1155
1#
b01101111 &
b01101111 '
b11110101 (
#1160
0#
#1165
1#
b01110000 &
b01110000 '
b11110100 (
#1170
0#
#1175
1#
b01110001 &
b01110001 '
b11110011 (
#1180
0#
#1185
1#
b01110010 &
b01110010 '
b11110010 (
#1190
0#
#1195
1#
b01110011 &
b01110011 '
b11110001 (
#1200
0#
#1205
1#
b01110100 &
b01110100 '
b11110000 (
#1210
0#
#1215
1#
b01110101 &
b01110101 '
b11101111 (
#1220
0#
#1225
1#
b01110110 &
b01110110 '
b11101110 (
#1230
0#
#1235
1#
b01110111 &
b01110111 '
b11101101 (
#1240
0#
#1245
1#
b01111000 &
b01111000 '
b11101100 (
#1250
0#
1%
b11101100 &
#1255
1#
b11101011 &
b01111001 '
b11101011 (
#1260
0#
#1265
1#
b11101010 &
b01111010 '
b11101010 (
#1270
0#
#1275
1#
b11101001 &
b01111011 '
b11101001 (
#1280
0#
#1285
1#
b11101000 &
b01111100 '
b11101000 (
#1290
0#
#1295
1#
b11100111 &
b01111101 '
b11100111 (
#1300
0#
#1305
1#
b11100110 &
b01111110 '
b11100110 (
#1310
0#
#1315
1#
b11100101 &
b01111111 '
b11100101 (
#1320
0#
#1325
1#
b11100100 &
b10000000 '
b11100100 (
#1330
0#
#1335
1#
b11100011 &
b10000001 '
b11100011 (
#1340
0#
#1345
1#
b11100010 &
b10000010 '
b11100010 (
#1350
0#
#1355
1#
b11100001 &
b10000011 '
b11100001 (
#1360
0#
#1365
1#
b11100000 &
b10000100 '
b11100000 (
#1370
0#
#1375
1#
b11011111 &
b10000101 '
b11011111 (
#1380
0#
#1385
1#
b11011110 &
b10000110 '
b11011110 (
#1390
0#
#1395
1#
b11011101 &
b10000111 '
b11011101 (
#1400
0#
#1405
1#
b11011100 &
b10001000 '
b11011100 (
#1410
0#
#1415
1#
b11011011 &
b10001001 '
b11011011 (
#1420
0#
#1425
1#
b11011010 &
b10001010 '
b11011010 (
#1430
0#
#1435
1#
b11011001 &
b10001011 '
b11011001 (
#1440
0#
#1445
1#
b11011000 &
b10001100 '
b11011000 (
#1450
0#
0%
b10001100 &
#1455
1#
b10001101 &
b10001101 '
b11010111 (
#1460
0#
#1465
1#
b10001110 &
b10001110 '
b11010110 (
#1470
0#
#1475
1#
b10001111 &
b10001111 '
b11010101 (
#1480
0#
#1485
1#
b10010000 &
b10010000 '
b11010100 (
#1490
0#
#1495
1#
b10010001 &
b10010001 '
b11010011 (
#1500
0#
#1505
1#
b10010010 &
b10010010 '
b11010010 (
#1510
0#
#1515
1#
b10010011 &
b10010011 '
b11010001 (
#1520
0#
#1525
1#
b10010100 &
b10010100 '
b11010000 (
#1530
0#
#1535
1#
b10010101 &
b10010101 '
b11001111 (
#1540
0#
#1545
1#
b10010110 &
b10010110 '
b11001110 (
#1550
0#
#1555
1#
b10010111 &
b10010111 '
b11001101 (
#1560
0#
#1565
1#
b10011000 &
b10011000 '
b11001100 (
#1570
0#
#1575
1#
b10011001 &
b10011001 '
b11001011 (
#1580
0#
#1585
1#
b10011010 &
b10011010 '
b11001010 (
#1590
0#
#1595
1#
b10011011 &
b10011011 '
b11001001 (
#1600
0#
#1605
1#
b10011100 &
b10011100 '
b11001000 (
#1610
0#
#1615
1#
b10011101 &
b10011101 '
b11000111 (
#1620
0#
#1625
1#
b10011110 &
b10011110 '
b11000110 (
#1630
0#
#1635
1#
b10011111 &
b10011111 '
b11000101 (
#1640
0#
#1645
1#
b10100000 &
b10100000 '
b11000100 (
#1650
0#
1%
b11000100 &
#1655
1#
b11000011 &
b10100001 '
b11000011 (
#1660
0#
#1665
1#
b11000010 &
b10100010 '
b11000010 (
#1670
0#
#1675
1#
b11000001 &
b10100011 '
b11000001 (
#1680
0#
#1685
1#
b11000000 &
b10100100 '
b11000000 (
#1690
0#
#1695
1#
b10111111 &
b10100101 '
b10111111 (
#1700
0#
#1705
1#
b10111110 &
b10100110 '
b10111110 (
#1710
0#
#1715
1#
b10111101 &
b10100111 '
b10111101 (
#1720
0#
#1725
1#
b10111100 &
b10101000 '
b10111100 (
#1730
0#
#1735
1#
b10111011 &
b10101001 '
b10111011 (
#1740
0#
#1745
1#
b10111010 &
b10101010 '
b10111010 (
#1750
0#
#1755
1#
b10111001 &
b10101011 '
b10111001 (
#1760
0#
#1765
1#
b10111000 &
b10101100 '
b10111000 (
#1770
0#
#1775
1#
b10110111 &
b10101101 '
b10110111 (
#1780
0#
#1785
1#
b10110110 &
b10101110 '
b10110110 (
#1790
0#
#1795
1#
b10110101 &
b10101111 '
b10110101 (
#1800
0#
#1805
1#
b10110100 &
b10110000 '
b10110100 (
#1810
0#
#1815
1#
b10110011 &
b10110001 '
b10110011 (
#1820
0#
#1825
1#
b10110010 &
b10110010 '
b10110010 (
#1830
0#
#1835
1#
b10110001 &
b10110011 '
b10110001 (
#1840
0#
#1845
1#
b10110000 &
b10110100 '
b10110000 (
#1850
0#
0%
b10110100 &
#1855
1#
b10110101 &
b10110101 '
b10101111 (
#1860
0#
#1865
1#
b10110110 &
b10110110 '
b10101110 (
#1870
0#
#1875
1#
b10110111 &
b10110111 '
b10101101 (
#1880
0#
#1885
1#
b10111000 &
b10111000 '
b10101100 (
#1890
0#
#1895
1#
b10111001 &
b10111001 '
b10101011 (
#1900
0#
#1905
1#
b10111010 &
b10111010 '
b10101010 (
#1910
0#
#1915
1#
b10111011 &
b10111011 '
b10101001 (
#1920
0#
#1925
1#
b10111100 &
b10111100 '
b10101000 (
#1930
0#
#1935
1#
b10111101 &
b10111101 '
b10100111 (
#1940
0#
#1945
1#
b10111110 &
b10111110 '
b10100110 (
#1950
0#
#1955
1#
b10111111 &
b10111111 '
b10100101 (
#1960
0#
#1965
1#
b11000000 &
b11000000 '
b10100100 (
#1970
0#
#1975
1#
b11000001 &
b11000001 '
b10100011 (
#1980
0#
#1985
1#
b11000010 &
b11000010 '
b10100010 (
#1990
0#
#1995
1#
b11000011 &
b11000011 '
b10100001 (
#2000
0#
#2005
1#
b11000100 &
b11000100 '
b10100000 (
#2010
0#
#2015
1#
b11000101 &
b11000101 '
b10011111 (
#2020
0#
#2025
1#
b11000110 &
b11000110 '
b10011110 (
#2030
0#
#2035
1#
b11000111 &
b11000111 '
b10011101 (
#2040
0#
#2045
1#
b11001000 &
b11001000 '
b10011100 (
#2050
0#
1%
b10011100 &
#2055
1#
b10011011 &
b11001001 '
b10011011 (
#2060
0#
#2065
1#
b10011010 &
b11001010 '
b10011010 (
#2070
0#
#2075
1#
b10011001 &
b11001011 '
b10011001 (
#2080
0#
#2085
1#
b10011000 &
b11001100 '
b10011000 (
#2090
0#
#2095
1#
b10010111 &
b11001101 '
b10010111 (
#2100
0#
#2105
1#
b10010110 &
b11001110 '
b10010110 (
#2110
0#
#2115
1#
b10010101 &
b11001111 '
b10010101 (
#2120
0#
#2125
1#
b10010100 &
b11010000 '
b10010100 (
#2130
0#
#2135
1#
b10010011 &
b11010001 '
b10010011 (
#2140
0#
#2145
1#
b10010010 &
b11010010 '
b10010010 (
#2150
0#
#2155
1#
b10010001 &
b11010011 '
b10010001 (
#2160
0#
#2165
1#
b10010000 &
b11010100 '
b10010000 (
#2170
0#
#2175
1#
b10001111 &
b11010101 '
b10001111 (
#2180
0#
#2185
1#
b10001110 &
b11010110 '
b10001110 (
#2190
0#
#2195
1#
b10001101 &
b11010111 '
b10001101 (
#2200
0#
#2205
1#
b10001100 &
b11011000 '
b10001100 (
#2210
0#
#2215
1#
b10001011 &
b11011001 '
b10001011 (
#2220
0#
#2225
1#
b10001010 &
b11011010 '
b10001010 (
#2230
0#
#2235
1#
b10001001 &
b11011011 '
b10001001 (
#2240
0#
#2245
1#
b10001000 &
b11011100 '
b10001000 (
#2250
0#
0%
b11011100 &
#2255
1#
b11011101 &
b11011101 '
b10000111 (
#2260
0#
#2265
1#
b11011110 &
b11011110 '
b10000110 (
#2270
0#
#2275
1#
b11011111 &
b11011111 '
b10000101 (
#2280
0#
#2285
1#
b11100000 &
b11100000 '
b10000100 (
#2290
0#
#2295
1#
b11100001 &
b11100001 '
b10000011 (
#2300
0#
#2305
1#
b11100010 &
b11100010 '
b10000010 (
#2310
0#
#2315
1#
b11100011 &
b11100011 '
b10000001 (
#2320
0#
#2325
1#
b11100100 &
b11100100 '
b10000000 (
#2330
0#
#2335
1#
b11100101 &
b11100101 '
b01111111 (
#2340
0#
#2345
1#
b11100110 &
b11100110 '
b01111110 (
#2350
0#
#2355
1#
b11100111 &
b11100111 '
b01111101 (
#2360
0#
#2365
1#
b11101000 &
b11101000 '
b01111100 (
#2370
0#
#2375
1#
b11101001 &
b11101001 '
b01111011 (
#2380
0#
#2385
1#
b11101010 &
b11101010 '
b01111010 (
#2390
0#
#2395
1#
b11101011 &
b11101011 '
b01111001 (
#2400
0#
#2405
1#
b11101100 &
b11101100 '
b01111000 (
#2410
0#
#2415
1#
b11101101 &
b11101101 '
b01110111 (
#2420
0#
#2425
1#
b11101110 &
b11101110 '
b01110110 (
#2430
0#
#2435
1#
b11101111 &
b11101111 '
b01110101 (
#2440
0#
#2445
1#
b11110000 &
b11110000 '
b01110100 (
#2450
0#
1%
b01110100 &
#2455
1#
b01110011 &
b11110001 '
b01110011 (
#2460
0#
#2465
1#
b01110010 &
b11110010 '
b01110010 (
#2470
0#
#2475
1#
b01110001 &
b11110011 '
b01110001 (
#2480
0#
#2485
1#
b01110000 &
b11110100 '
b01110000 (
#2490
0#
#2495
1#
b01101111 &
b11110101 '
b01101111 (
#2500
0#
#2505
1#
b01101110 &
b11110110 '
b01101110 (
#2510
0#
#2515
1#
b01101101 &
b11110111 '
b01101101 (
#2520
0#
#2525
1#
b01101100 &
b11111000 '
b01101100 (
#2530
0#
#2535
1#
b01101011 &
b11111001 '
b01101011 (
#2540
0#
#2545
1#
b01101010 &
b11111010 '
b01101010 (
#2550
0#
#2555
1#
b01101001 &
b11111011 '
b01101001 (
#2560
0#
#2565
1#
b01101000 &
b11111100 '
b01101000 (
#2570
0#
#2575
1#
b01100111 &
b11111101 '
b01100111 (
#2580
0#
#2585
1#
b01100110 &
b11111110 '
b01100110 (
#2590
0#
#2595
1#
b01100101 &
b11111111 '
b01100101 (
#2600
0#
#2605
1#
b01100100 &
b00000000 '
b01100100 (
#2610
0#
#2615
1#
b01100011 &
b00000001 '
b01100011 (
#2620
0#
#2625
1#
b01100010 &
b00000010 '
b01100010 (
#2630
0#
#2635
1#
b01100001 &
b00000011 '
b01100001 (
#2640
0#
#2645
1#
b01100000 &
b00000100 '
b01100000 (
#2650
0#
0%
b00000100 &
#2655
1#
b00000101 &
b00000101 '
b01011111 (
#2660
0#
#2665
1#
b00000110 &
b00000110 '
b01011110 (
#2670
0#
#2675
1#
b00000111 &
b00000111 '
b01011101 (
#2680
0#
#2685
1#
b00001000 &
b00001000 '
b01011100 (
#2690
0#
#2695
1#
b00001001 &
b00001001 '
b01011011 (
#2700
0#
#2705
1#
b00001010 &
b00001010 '
b01011010 (
#2710
0#
#2715
1#
b00001011 &
b00001011 '
b01011001 (
#2720
0#
#2725
1#
b00001100 &
b00001100 '
b01011000 (
#2730
0#
#2735
1#
b00001101 &
b00001101 '
b01010111 (
#2740
0#
#2745
1#
b00001110 &
b00001110 '
b01010110 (
#2750
0#
#2755
1#
b00001111 &
b00001111 '
b01010101 (
#2760
0#
#2765
1#
b00010000 &
b00010000 '
b01010100 (
#2770
0#
#2775
1#
b00010001 &
b00010001 '
b01010011 (
#2780
0#
#2785
1#
b00010010 &
b00010010 '
b01010010 (
#2790
0#
#2795
1#
b00010011 &
b00010011 '
b01010001 (
#2800
0#
#2805
1#
b00010100 &
b00010100 '
b01010000 (
#2810
0#
#2815
1#
b00010101 &
b00010101 '
b01001111 (
#2820
0#
#2825
1#
b00010110 &
b00010110 '
b01001110 (
#2830
0#
#2835
1#
b00010111 &
b00010111 '
b01001101 (
#2840
0#
#2845
1#
b00011000 &
b00011000 '
b01001100 (
#2850
0#
1%
b01001100 &
#2855
1#
b01001011 &
b00011001 '
b01001011 (
#2860
0#
#2865
1#
b01001010 &
b00011010 '
b01001010 (
#2870
0#
#2875
1#
b01001001 &
b00011011 '
b01001001 (
#2880
0#
#2885
1#
b01001000 &
b00011100 '
b01001000 (
#2890
0#
#2895
1#
b01000111 &
b00011101 '
b01000111 (
#2900
0#
#2905
1#
b01000110 &
b00011110 '
b01000110 (
#2910
0#
#2915
1#
b01000101 &
b00011111 '
b01000101 (
#2920
0#
#2925
1#
b01000100 &
b00100000 '
b01000100 (
#2930
0#
#2935
1#
b01000011 &
b00100001 '
b01000011 (
#2940
0#
#2945
1#
b01000010 &
b00100010 '
b01000010 (
#2950
0#
#2955
1#
b01000001 &
b00100011 '
b01000001 (
#2960
0#
#2965
1#
b01000000 &
b00100100 '
b01000000 (
#2970
0#
#2975
1#
b00111111 &
b00100101 '
b00111111 (
#2980
0#
#2985
1#
b00111110 &
b00100110 '
b00111110 (
#2990
0#
#2995
1#
b00111101 &
b00100111 '
b00111101 (
#3000
0#
#3005
1#
b00111100 &
b00101000 '
b00111100 (
#3010
0#
#3015
1#
b00111011 &
b00101001 '
b00111011 (
#3020
0#
#3025
1#
b00111010 &
b00101010 '
b00111010 (
#3030
0#
#3035
1#
b00111001 &
b00101011 '
b00111001 (
#3040
0#
#3045
1#
b00111000 &
b00101100 '
b00111000 (
#3050
0#
0%
b00101100 &
#3055
1#
b00101101 &
b00101101 '
b00110111 (
#3060
0#
#3065
1#
b00101110 &
b00101110 '
b00110110 (
#3070
0#
#3075
1#
b00101111 &
b00101111 '
b00110101 (
#3080
0#
#3085
1#
b00110000 &
b00110000 '
b00110100 (
#3090
0#
#3095
1#
b00110001 &
b00110001 '
b00110011 (
#3100
0#
#3105
1#
b00110010 &
b00110010 '
b00110010 (
#3110
0#
#3115
1#
b00110011 &
b00110011 '
b00110001 (
#3120
0#
#3125
1#
b00110100 &
b00110100 '
b00110000 (
#3130
0#
#3135
1#
b00110101 &
b00110101 '
b00101111 (
#3140
0#
#3145
1#
b00110110 &
b00110110 '
b00101110 (
#3150
0#
#3155
1#
b00110111 &
b00110111 '
b00101101 (
#3160
0#
#3165
1#
b00111000 &
b00111000 '
b00101100 (
#3170
0#
#3175
1#
b00111001 &
b00111001 '
b00101011 (
#3180
0#
#3185
1#
b00111010 &
b00111010 '
b00101010 (
#3190
0#
#3195
1#
b00111011 &
b00111011 '
b00101001 (
#3200
0#
#3205
1#
b00111100 &
b00111100 '
b00101000 (
#3210
0#
#3215
1#
b00111101 &
b00111101 '
b00100111 (
#3220
0#
#3225
1#
b00111110 &
b00111110 '
b00100110 (
#3230
0#
#3235
1#
b00111111 &
b00111111 '
b00100101 (
#3240
0#
#3245
1#
b01000000 &
b01000000 '
b00100100 (
#3250
0#
1%
b00100100 &
#3255
1#
b00100011 &
b01000001 '
b00100011 (
#3260
0#
#3265
1#
b00100010 &
b01000010 '
b00100010 (
#3270
0#
#3275
1#
b00100001 &
b01000011 '
b00100001 (
#3280
0#
#3285
1#
b00100000 &
b01000100 '
b00100000 (
#3290
0#
#3295
1#
b00011111 &
b01000101 '
b00011111 (
#3300
0#
#3305
1#
b00011110 &
b01000110 '
b00011110 (
#3310
0#
#3315
1#
b00011101 &
b01000111 '
b00011101 (
#3320
0#
#3325
1#
b00011100 &
b01001000 '
b00011100 (
#3330
0#
#3335
1#
b00011011 &
b01001001 '
b00011011 (
#3340
0#
#3345
1#
b00011010 &
b01001010 '
b00011010 (
#3350
0#
#3355
1#
b00011001 &
b01001011 '
b00011001 (
#3360
0#
#3365
1#
b00011000 &
b01001100 '
b00011000 (
#3370
0#
#3375
1#
b00010111 &
b01001101 '
b00010111 (
#3380
0#
#3385
1#
b00010110 &
b01001110 '
b00010110 (
#3390
0#
#3395
1#
b00010101 &
b01001111 '
b00010101 (
#3400
0#
#3405
1#
b00010100 &
b01010000 '
b00010100 (
#3410
0#
#3415
1#
b00010011 &
b01010001 '
b00010011 (
#3420
0#
#3425
1#
b00010010 &
b01010010 '
b00010010 (
#3430
0#
#3435
1#
b00010001 &
b01010011 '
b00010001 (
#3440
0#
#3445
1#
b00010000 &
b01010100 '
b00010000 (
#3450
0#
0%
b01010100 &
#3455
1#
b01010101 &
b01010101 '
b00001111 (
#3460
0#
#3465
1#
b01010110 &
b01010110 '
b00001110 (
#3470
0#
#3475
1#
b01010111 &
b01010111 '
b00001101 (
#3480
0#
#3485
1#
b01011000 &
b01011000 '
b00001100 (
#3490
0#
#3495
1#
b01011001 &
b01011001 '
b00001011 (
#3500
0#
#3505
1#
b01011010 &
b01011010 '
b00001010 (
#3510
0#
#3515
1#
b01011011 &
b01011011 '
b00001001 (
#3520
0#
#3525
1#
b01011100 &
b01011100 '
b00001000 (
#3530
0#
#3535
1#
b01011101 &
b01011101 '
b00000111 (
#3540
0#
#3545
1#
b01011110 &
b01011110 '
b00000110 (
#3550
0#
#3555
1#
b01011111 &
b01011111 '
b00000101 (
#3560
0#
#3565
1#
b01100000 &
b01100000 '
b00000100 (
#3570
0#
#3575
1#
b01100001 &
b01100001 '
b00000011 (
#3580
0#
#3585
1#
b01100010 &
b01100010 '
b00000010 (
#3590
0#
#3595
1#
b01100011 &
b01100011 '
b00000001 (
#3600
0#
#3605
1#
b01100100 &
b01100100 '
b00000000 (
#3610
0#
#3615
1#
b01100101 &
b01100101 '
b11111111 (
#3620
0#
#3625
1#
b01100110 &
b01100110 '
b11111110 (
#3630
0#
#3635
1#
b01100111 &
b01100111 '
b11111101 (
#3640
0#
#3645
1#
b01101000 &
b01101000 '
b11111100 (
#3650
0#
1%
b11111100 &
#3655
1#
b11111011 &
b01101001 '
b11111011 (
#3660
0#
#3665
1#
b11111010 &
b01101010 '
b11111010 (
#3670
0#
#3675
1#
b11111001 &
b01101011 '
b11111001 (
#3680
0#
#3685
1#
b11111000 &
b01101100 '
b11111000 (
#3690
0#
#3695
1#
b11110111 &
b01101101 '
b11110111 (
#3700
0#
#3705
1#
b11110110 &
b01101110 '
b11110110 (
#3710
0#
#3715
1#
b11110101 &
b01101111 '
b11110101 (
#3720
0#
#3725
1#
b11110100 &
b01110000 '
b11110100 (
#3730
0#
#3735
1#
b11110011 &
b01110001 '
b11110011 (
#3740
0#
#3745
1#
b11110010 &
b01110010 '
b11110010 (
#3750
0#
#3755
1#
b11110001 &
b01110011 '
b11110001 (
#3760
0#
#3765
1#
b11110000 &
b01110100 '
b11110000 (
#3770
0#
#3775
1#
b11101111 &
b01110101 '
b11101111 (
#3780
0#
#3785
1#
b11101110 &
b01110110 '
b11101110 (
#3790
0#
#3795
1#
b11101101 &
b01110111 '
b11101101 (
#3800
0#
#3805
1#
b11101100 &
b01111000 '
b11101100 (
#3810
0#
#3815
1#
b11101011 &
b01111001 '
b11101011 (
#3820
0#
#3825
1#
b11101010 &
b01111010 '
b11101010 (
#3830
0#
#3835
1#
b11101001 &
b01111011 '
b11101001 (
#3840
0#
#3845
1#
b11101000 &
b01111100 '
b11101000 (
#3850
0#
0%
b01111100 &
#3855
1#
b01111101 &
b01111101 '
b11100111 (
#3860
0#
#3865
1#
b01111110 &
b01111110 '
b11100110 (
#3870
0#
#3875
1#
b01111111 &
b01111111 '
b11100101 (
#3880
0#
#3885
1#
b10000000 &
b10000000 '
b11100100 (
#3890
0#
#3895
1#
b10000001 &
b10000001 '
b11100011 (
#3900
0#
#3905
1#
b10000010 &
b10000010 '
b11100010 (
#3910
0#
#3915
1#
b10000011 &
b10000011 '
b11100001 (
#3920
0#
#3925
1#
b10000100 &
b10000100 '
b11100000 (
#3930
0#
#3935
1#
b10000101 &
b10000101 '
b11011111 (
#3940
0#
#3945
1#
b10000110 &
b10000110 '
b11011110 (
#3950
0#
#3955
1#
b10000111 &
b10000111 '
b11011101 (
#3960
0#
#3965
1#
b10001000 &
b10001000 '
b11011100 (
#3970
0#
#3975
1#
b10001001 &
b10001001 '
b11011011 (
#3980
0#
#3985
1#
b10001010 &
b10001010 '
b11011010 (
#3990
0#
#3995
1#
b10001011 &
b10001011 '
b11011001 (
#4000
0#
#4005
1#
b10001100 &
b10001100 '
b11011000 (
#4010
0#
#4015
1#
b10001101 &
b10001101 '
b11010111 (
#4020
0#
#4025
1#
b10001110 &
b10001110 '
b11010110 (
#4030
0#
#4035
1#
b10001111 &
b10001111 '
b11010101 (
#4040
0#
#4045
1#
b10010000 &
b10010000 '
b11010100 (
#4050
0#
1%
b11010100 &
#4055
1#
b11010011 &
b10010001 '
b11010011 (
#4060
0#
#4065
1#
b11010010 &
b10010010 '
b11010010 (
#4070
0#
#4075
1#
b11010001 &
b10010011 '
b11010001 (
#4080
0#
#4085
1#
b11010000 &
b10010100 '
b11010000 (
#4090
0#
#4095
1#
b11001111 &
b10010101 '
b11001111 (
#4100
0#
#4105
1#
b11001110 &
b10010110 '
b11001110 (
#4110
0#
#4115
1#
b11001101 &
b10010111 '
b11001101 (
#4120
0#
#4125
1#
b11001100 &
b10011000 '
b11001100 (
#4130
0#
#4135
1#
b11001011 &
b10011001 '
b11001011 (
#4140
0#
#4145
1#
b11001010 &
b10011010 '
b11001010 (
#4150
0#
#4155
1#
b11001001 &
b10011011 '
b11001001 (
#4160
0#
#4165
1#
b11001000 &
b10011100 '
b11001000 (
#4170
0#
#4175
1#
b11000111 &
b10011101 '
b11000111 (
#4180
0#
#4185
1#
b11000110 &
b10011110 '
b11000110 (
#4190
0#
#4195
1#
b11000101 &
b10011111 '
b11000101 (
#4200
0#
#4205
1#
b11000100 &
b10100000 '
b11000100 (
#4210
0#
#4215
1#
b11000011 &
b10100001 '
b11000011 (
#4220
0#
